{
    "name": "WeatherMap",
    "alias": "weathermap",
    "description": "",
    "keywords": [],
    "order": 0,
    "providers": [
        "Modules\\WeatherMap\\Providers\\WeatherMapServiceProvider"
    ],
    "aliases": {},
    "files": [],
    "requires": []
}
